
{
    "_QPVersion": "0.1.1",
    "name": "ScoreRequirement",
    "id": "ScoreRequirement",
    "author": "Millzy, Raine",
    "version": "0.1.0",
    "packageId": "com.beatgames.beatsaber",
    "packageVersion": "1.16.4",
    "description": "#{description}",
    "modFiles": [
        "libScoreRequirement.so"
    ],
    "libraryFiles": [
        "libbeatsaber-hook_2_2_5.so",
        "libquestui.so"
    ]
}