{
  "sharedDir": "shared",
  "dependenciesDir": "extern",
  "info": {
    "name": "ScoreRequirement",
    "id": "ScoreRequirement",
    "version": "0.1.0",
    "url": null,
    "additionalData": {}
  },
  "dependencies": [
    {
      "id": "beatsaber-hook",
      "versionRange": "*",
      "additionalData": {
        "extraFiles": [
          "src/inline-hook"
        ]
      }
    },
    {
      "id": "codegen",
      "versionRange": "*",
      "additionalData": {}
    },
    {
      "id": "custom-types",
      "versionRange": "*",
      "additionalData": {}
    },
    {
      "id": "config-utils",
      "versionRange": "*",
      "additionalData": {}
    }
  ],
  "additionalData": {}
}